{
  "name": "Message",
  "base": "PersistedModel",
  "idInjection": true,
  "options": {
    "validateUpsert": true
  },
  "properties": {
    "message": {
      "type": "string",
      "required": true
    },
    "sendId": {
      "type": "string",
      "required": true
    },
    "receiverId": {
      "type": "string",
      "required": true
    },
    "dateSend": {
      "type": "date",
      "required": true
    }
  },
  "validations": [],
  "relations": {},
  "acls": [],
  "methods": {}
}
